…
Conduct sentiment analysis on the character vector of tweets (text) using the `analyze_sentiment()` function.

``` r
sa <- analyze_sentiment(trump_tweets)
```

The output is a bit messy, but it's easily converted into a tidy data frame using the `as.data.frame` or `as_tibble` functions.

``` r
tibble::as_tibble(sa)
```

    ## # A tibble: 154 x 6
    ##          id document sentence offset score
    ##       <chr>    <dbl>    <int>  <int> <dbl>
    ##  1 WjDuKF1N      0.0        1      0   0.0
    ##  2 WjDuKF1N      0.0        2      8  -0.1
    ##  3 fMgwPX11     -0.2        1      0  -0.2
    ##  4 13OZkE0q     -0.1        1      0  -0.1
    ##  5 t0kuyOwZ      0.2        1      0   0.3
    ##  6 t0kuyOwZ      0.2        2     69   0.1
    ##  7 AIF5N9Y1     -0.1        1      0  -0.1
    ##  8 D8LHBAEK     -0.1        1      0  -0.1
    ##  9 dIuu28HA     -0.4        1      0  -0.3
    ## 10 dIuu28HA     -0.4        2     83  -0.5
    ## # ... with 144 more rows, and 1 more variables: content <chr>
…
